<?xml version="1.0" encoding="UTF-8"?>
<svg width="10px" height="16px" viewBox="0 0 10 16" version="1.1" xmlns="http://www.w3.org/2000/svg" xmlns:xlink="http://www.w3.org/1999/xlink">
    <!-- Generator: sketchtool 55.2 (78181) - https://sketchapp.com -->
    <title>20C4B7FB-DC0E-4F1E-A938-946858CD2495</title>
    <desc>Created with sketchtool.</desc>
    <g id="Design-Production" stroke="none" stroke-width="1" fill="none" fill-rule="evenodd">
        <g id="Styles" transform="translate(-187.000000, -1467.000000)" fill="#FFFFFF">
            <g id="Icons" transform="translate(30.000000, 1185.000000)">
                <g id="Icons-White" transform="translate(0.000000, 89.000000)">
                    <g id="icon-caret-left" transform="translate(112.000000, 186.000000)">
                        <polygon transform="translate(49.797894, 15.000000) scale(-1, 1) translate(-49.797894, -15.000000) " points="54.5957875 15.000108 54.0754633 14.4189547 46.2907118 7 45 8.16230665 52.2644728 14.9999999 45 21.8376931 46.2907118 23 54.0754633 15.5810451"></polygon>
                    </g>
                </g>
            </g>
        </g>
    </g>
</svg>