<?xml version="1.0" encoding="UTF-8"?>
<svg width="20px" height="20px" viewBox="0 0 20 20" version="1.1" xmlns="http://www.w3.org/2000/svg" xmlns:xlink="http://www.w3.org/1999/xlink">
    <!-- Generator: sketchtool 55.2 (78181) - https://sketchapp.com -->
    <title>6C6891FB-8C79-4B74-91DF-9A87F869B467</title>
    <desc>Created with sketchtool.</desc>
    <g id="Design-Production" stroke="none" stroke-width="1" fill="none" fill-rule="evenodd">
        <g id="Styles" transform="translate(-294.000000, -1378.000000)" fill="#FFFFFF" fill-rule="nonzero">
            <g id="Icons" transform="translate(30.000000, 1185.000000)">
                <g id="Icons-White" transform="translate(0.000000, 89.000000)">
                    <g id="icon-info" transform="translate(224.000000, 99.000000)">
                        <path d="M50,25 C44.4771525,25 40,20.5228475 40,15 C40,9.4771525 44.4771525,5 50,5 C55.5228475,5 60,9.4771525 60,15 C60,20.5228475 55.5228475,25 50,25 Z M50,24 C54.9705627,24 59,19.9705627 59,15 C59,10.0294373 54.9705627,6 50,6 C45.0294373,6 41,10.0294373 41,15 C41,19.9705627 45.0294373,24 50,24 Z M51,19 L49,19 L49,13 L51,13 L51,19 Z M50.7215919,11.7194522 C50.5361743,11.9064894 50.2957399,12 49.9997253,12 C49.7037107,12 49.462727,11.906483 49.2778588,11.7194522 C49.0924412,11.5324151 49,11.2923902 49,11 C49,10.7076098 49.0924341,10.4675849 49.2778588,10.2805478 C49.462727,10.0935106 49.7037107,10 49.9997253,10 C50.2957399,10 50.5361743,10.093517 50.7215919,10.2805478 C50.9070095,10.4675785 51,10.7076098 51,11 C50.9994507,11.2923902 50.9070151,11.5324151 50.7215919,11.7194522 Z" id="icon-info-white"></path>
                    </g>
                </g>
            </g>
        </g>
    </g>
</svg>