<?xml version="1.0" encoding="UTF-8"?>
<svg width="16px" height="6px" viewBox="0 0 16 6" version="1.1" xmlns="http://www.w3.org/2000/svg" xmlns:xlink="http://www.w3.org/1999/xlink">
    <!-- Generator: sketchtool 55.2 (78181) - https://sketchapp.com -->
    <title>8B56499D-BE1B-46D3-A808-AD5A6C149C55</title>
    <desc>Created with sketchtool.</desc>
    <g id="Design-Production" stroke="none" stroke-width="1" fill="none" fill-rule="evenodd">
        <g id="Styles" transform="translate(-128.000000, -1571.000000)" fill="#FFFFFF">
            <g id="Icons" transform="translate(30.000000, 1185.000000)">
                <g id="Icons-White" transform="translate(0.000000, 89.000000)">
                    <g id="icon-list" transform="translate(56.000000, 285.000000)">
                        <path d="M42.9795918,12 L57.0204082,12 C57.5614218,12 58,12.4385782 58,12.9795918 C58,13.5206055 57.5614218,13.9591837 57.0204082,13.9591837 L42.9795918,13.9591837 C42.4385782,13.9591837 42,13.5206055 42,12.9795918 C42,12.4385782 42.4385782,12 42.9795918,12 Z M45.2653061,16 L54.7346939,16 C55.2757075,16 55.7142857,16.4385782 55.7142857,16.9795918 C55.7142857,17.5206055 55.2757075,17.9591837 54.7346939,17.9591837 L45.2653061,17.9591837 C44.7242925,17.9591837 44.2857143,17.5206055 44.2857143,16.9795918 C44.2857143,16.4385782 44.7242925,16 45.2653061,16 Z" id="icon-list-white"></path>
                    </g>
                </g>
            </g>
        </g>
    </g>
</svg>