<?xml version="1.0" encoding="UTF-8"?>
<svg width="22px" height="13px" viewBox="0 0 22 13" version="1.1" xmlns="http://www.w3.org/2000/svg" xmlns:xlink="http://www.w3.org/1999/xlink">
    <!-- Generator: sketchtool 55.2 (78181) - https://sketchapp.com -->
    <title>6FFD293A-7E6C-43A9-9DEA-3C0363402827</title>
    <desc>Created with sketchtool.</desc>
    <g id="Design-Production" stroke="none" stroke-width="1" fill="none" fill-rule="evenodd">
        <g id="Styles" transform="translate(-237.000000, -1568.000000)" fill="#FFFFFF">
            <g id="Icons" transform="translate(30.000000, 1185.000000)">
                <g id="Icons-White" transform="translate(0.000000, 89.000000)">
                    <g id="icon-graph" transform="translate(168.000000, 285.000000)">
                        <path d="M39.8979592,19.7755102 L46.1836735,19.7755102 C46.6796026,19.7755102 47.0816327,20.1775402 47.0816327,20.6734694 C47.0816327,21.1693986 46.6796026,21.5714286 46.1836735,21.5714286 L39.8979592,21.5714286 C39.40203,21.5714286 39,21.1693986 39,20.6734694 C39,20.1775402 39.40203,19.7755102 39.8979592,19.7755102 Z M58.755102,19.7755102 L60.1020408,19.7755102 C60.59797,19.7755102 61,20.1775402 61,20.6734694 C61,21.1693986 60.59797,21.5714286 60.1020408,21.5714286 L58.755102,21.5714286 C58.2591729,21.5714286 57.8571429,21.1693986 57.8571429,20.6734694 C57.8571429,20.1775402 58.2591729,19.7755102 58.755102,19.7755102 Z M52.4693878,9 C52.9653169,9 53.3673469,9.40203002 53.3673469,9.89795918 L53.3673469,20.6734694 C53.3673469,21.1693986 52.9653169,21.5714286 52.4693878,21.5714286 C51.9734586,21.5714286 51.5714286,21.1693986 51.5714286,20.6734694 L51.5714286,9.89795918 C51.5714286,9.40203002 51.9734586,9 52.4693878,9 Z M49.3265306,15.2857143 C49.8224598,15.2857143 50.2244898,15.6877443 50.2244898,16.1836735 L50.2244898,20.6734694 C50.2244898,21.1693986 49.8224598,21.5714286 49.3265306,21.5714286 C48.8306014,21.5714286 48.4285714,21.1693986 48.4285714,20.6734694 L48.4285714,16.1836735 C48.4285714,15.6877443 48.8306014,15.2857143 49.3265306,15.2857143 Z M55.6122449,15.2857143 C56.1081741,15.2857143 56.5102041,15.6877443 56.5102041,16.1836735 L56.5102041,20.6734694 C56.5102041,21.1693986 56.1081741,21.5714286 55.6122449,21.5714286 C55.1163157,21.5714286 54.7142857,21.1693986 54.7142857,20.6734694 L54.7142857,16.1836735 C54.7142857,15.6877443 55.1163157,15.2857143 55.6122449,15.2857143 Z" id="icon-graph-white"></path>
                    </g>
                </g>
            </g>
        </g>
    </g>
</svg>